Thursday, September 21, 2022 | GEO5156: Quantitative Geography
…
As another example, let’s consider the airports data frame from the {nycflights13} package. The data frame includes information on 1458 airports in the United States including their location with latitude and longitude.

library(nycflights13)
airports

## # A tibble: 1,458 × 8
##    faa   name                             lat    lon   alt    tz dst   tzone    
##    <chr> <chr>                          <dbl>  <dbl> <dbl> <dbl> <chr> <chr>    
##  1 04G   Lansdowne Airport               41.1  -80.6  1044    -5 A     America/…
##  2 06A   Moton Field Municipal Airport   32.5  -85.7   264    -6 A     America/…
##  3 06C   Schaumburg Regional             42.0  -88.1   801    -6 A     America/…
##  4 06N   Randall Airport                 41.4  -74.4   523    -5 A     America/…
##  5 09J   Jekyll Island Airport           31.1  -81.4    11    -5 A     America/…
##  6 0A9   Elizabethton Municipal Airport  36.4  -82.2  1593    -5 A     America/…
##  7 0G6   Williams County Airport         41.5  -84.5   730    -5 A     America/…
##  8 0G7   Finger Lakes Regional Airport   42.9  -76.8   492    -5 A     America/…
##  9 0P2   Shoestring Aviation Airfield    39.8  -76.6  1000    -5 U     America/…
## 10 0S9   Jefferson County Intl           48.1 -123.    108    -8 A     America/…
## # … with 1,448 more rows
…
Alternatively, you can use sf::st_as_sf() to convert the airports data frame to a simple features data frame. The argument coords = tells sf::st_as_sf() which columns contain the geographic coordinates of each airport. You also set the CRS using the sf::st_crs() function and use the EPSG code corresponding to a geographic CRS.

airports.sf <- sf::st_as_sf(airports, 
                        coords = c("lon", "lat"),
                        crs = 4269)
airports.sf

## Simple feature collection with 1458 features and 6 fields
## Geometry type: POINT
## Dimension:     XY
## Bounding box:  xmin: -176.646 ymin: 19.72137 xmax: 174.1136 ymax: 72.27083
## Geodetic CRS:  NAD83
## # A tibble: 1,458 × 7
##    faa   name                    alt    tz dst   tzone             geometry
##  * <chr> <chr>                 <dbl> <dbl> <chr> <chr>          <POINT [°]>
##  1 04G   Lansdowne Airport      1044    -5 A     Amer… (-80.61958 41.13047)
##  2 06A   Moton Field Municipa…   264    -6 A     Amer… (-85.68003 32.46057)
##  3 06C   Schaumburg Regional     801    -6 A     Amer… (-88.10124 41.98934)
##  4 06N   Randall Airport         523    -5 A     Amer… (-74.39156 41.43191)
##  5 09J   Jekyll Island Airport    11    -5 A     Amer… (-81.42778 31.07447)
##  6 0A9   Elizabethton Municip…  1593    -5 A     Amer… (-82.17342 36.37122)
##  7 0G6   Williams County Airp…   730    -5 A     Amer… (-84.50678 41.46731)
##  8 0G7   Finger Lakes Regiona…   492    -5 A     Amer… (-76.78123 42.88356)
##  9 0P2   Shoestring Aviation …  1000    -5 U     Amer… (-76.64719 39.79482)
## 10 0S9   Jefferson County Intl   108    -8 A     Amer… (-122.8106 48.05381)
## # … with 1,448 more rows
…
