Thursday, September 8, 2022 | GEO5156: Quantitative Geography
…
airquality <- as_tibble(airquality)
class(airquality)

## [1] "tbl_df"     "tbl"        "data.frame"

Click on airquality in the environment. It is a data frame.

Selecting and filtering

The function select() chooses variables by name to create a data frame with fewer columns. For example, choose the month, day, and temperature columns from the airquality data frame.

airquality |>
  dplyr::select(Month, Day, Temp)

## # A tibble: 153 × 3
##    Month   Day  Temp
##    <int> <int> <int>
##  1     5     1    67
##  2     5     2    72
##  3     5     3    74
##  4     5     4    62
##  5     5     5    56
##  6     5     6    66
##  7     5     7    65
##  8     5     8    59
##  9     5     9    61
## 10     5    10    69
## # … with 143 more rows
## # ℹ Use `print(n = ...)` to see more rows

Suppose you want a new data frame with only the temperature and ozone concentrations.

df <- airquality |>
        dplyr::select(Temp, Ozone)
df

## # A tibble: 153 × 2
##     Temp Ozone
##    <int> <int>
##  1    67    41
##  2    72    36
##  3    74    12
##  4    62    18
##  5    56    NA
##  6    66    28
##  7    65    23
##  8    59    19
##  9    61     8
## 10    69    NA
## # … with 143 more rows
## # ℹ Use `print(n = ...)` to see more rows
…
Suppose you want only the observations where the temperature is at or above 80F.

airquality |>
  dplyr::filter(Temp >= 80)

## # A tibble: 73 × 6
##    Ozone Solar.R  Wind  Temp Month   Day
##    <int>   <int> <dbl> <int> <int> <int>
##  1    45     252  14.9    81     5    29
##  2    NA     186   9.2    84     6     4
##  3    NA     220   8.6    85     6     5
##  4    29     127   9.7    82     6     7
##  5    NA     273   6.9    87     6     8
##  6    71     291  13.8    90     6     9
##  7    39     323  11.5    87     6    10
##  8    NA     259  10.9    93     6    11
##  9    NA     250   9.2    92     6    12
## 10    23     148   8      82     6    13
## # … with 63 more rows
## # ℹ Use `print(n = ...)` to see more rows
…
loc <- "https://raw.githubusercontent.com/allisonhorst/palmerpenguins/master/inst/extdata/penguins.csv"
penguins <- readr::read_csv(loc)

## Rows: 344 Columns: 8
## ── Column specification ────────────────────────────────────────────────────────
## Delimiter: ","
## chr (3): species, island, sex
## dbl (5): bill_length_mm, bill_depth_mm, flipper_length_mm, body_mass_g, year
## 
## ℹ Use `spec()` to retrieve the full column specification for this data.
## ℹ Specify the column types or set `show_col_types = FALSE` to quiet this message.

penguins

## # A tibble: 344 × 8
##    species island    bill_length_mm bill_depth_mm flipper_…¹ body_…² sex    year
##    <chr>   <chr>              <dbl>         <dbl>      <dbl>   <dbl> <chr> <dbl>
##  1 Adelie  Torgersen           39.1          18.7        181    3750 male   2007
##  2 Adelie  Torgersen           39.5          17.4        186    3800 fema…  2007
##  3 Adelie  Torgersen           40.3          18          195    3250 fema…  2007
##  4 Adelie  Torgersen           NA            NA           NA      NA <NA>   2007
##  5 Adelie  Torgersen           36.7          19.3        193    3450 fema…  2007
##  6 Adelie  Torgersen           39.3          20.6        190    3650 male   2007
##  7 Adelie  Torgersen           38.9          17.8        181    3625 fema…  2007
##  8 Adelie  Torgersen           39.2          19.6        195    4675 male   2007
##  9 Adelie  Torgersen           34.1          18.1        193    3475 <NA>   2007
## 10 Adelie  Torgersen           42            20.2        190    4250 <NA>   2007
## # … with 334 more rows, and abbreviated variable names ¹​flipper_length_mm,
## #   ²​body_mass_g
## # ℹ Use `print(n = ...)` to see more rows

To keep only the penguins labeled in the column sex as female type

penguins |> 
  dplyr::filter(sex == "female")

## # A tibble: 165 × 8
##    species island    bill_length_mm bill_depth_mm flipper_…¹ body_…² sex    year
##    <chr>   <chr>              <dbl>         <dbl>      <dbl>   <dbl> <chr> <dbl>
##  1 Adelie  Torgersen           39.5          17.4        186    3800 fema…  2007
##  2 Adelie  Torgersen           40.3          18          195    3250 fema…  2007
##  3 Adelie  Torgersen           36.7          19.3        193    3450 fema…  2007
##  4 Adelie  Torgersen           38.9          17.8        181    3625 fema…  2007
##  5 Adelie  Torgersen           41.1          17.6        182    3200 fema…  2007
##  6 Adelie  Torgersen           36.6          17.8        185    3700 fema…  2007
##  7 Adelie  Torgersen           38.7          19          195    3450 fema…  2007
##  8 Adelie  Torgersen           34.4          18.4        184    3325 fema…  2007
##  9 Adelie  Biscoe              37.8          18.3        174    3400 fema…  2007
## 10 Adelie  Biscoe              35.9          19.2        189    3800 fema…  2007
## # … with 155 more rows, and abbreviated variable names ¹​flipper_length_mm,
## #   ²​body_mass_g
## # ℹ Use `print(n = ...)` to see more rows

To filter rows keeping only species that are not Adalie penguins.

penguins |> 
  dplyr::filter(species != "Adelie")

## # A tibble: 192 × 8
##    species island bill_length_mm bill_depth_mm flipper_len…¹ body_…² sex    year
##    <chr>   <chr>           <dbl>         <dbl>         <dbl>   <dbl> <chr> <dbl>
##  1 Gentoo  Biscoe           46.1          13.2           211    4500 fema…  2007
##  2 Gentoo  Biscoe           50            16.3           230    5700 male   2007
##  3 Gentoo  Biscoe           48.7          14.1           210    4450 fema…  2007
##  4 Gentoo  Biscoe           50            15.2           218    5700 male   2007
##  5 Gentoo  Biscoe           47.6          14.5           215    5400 male   2007
##  6 Gentoo  Biscoe           46.5          13.5           210    4550 fema…  2007
##  7 Gentoo  Biscoe           45.4          14.6           211    4800 fema…  2007
##  8 Gentoo  Biscoe           46.7          15.3           219    5200 male   2007
##  9 Gentoo  Biscoe           43.3          13.4           209    4400 fema…  2007
## 10 Gentoo  Biscoe           46.8          15.4           215    5150 male   2007
## # … with 182 more rows, and abbreviated variable names ¹​flipper_length_mm,
## #   ²​body_mass_g
## # ℹ Use `print(n = ...)` to see more rows
…
## # A tibble: 1 × 8
##   species island bill_length_mm bill_depth_mm flipper_leng…¹ body_…² sex    year
##   <chr>   <chr>           <dbl>         <dbl>          <dbl>   <dbl> <chr> <dbl>
## 1 Gentoo  Biscoe           46.9          14.6            222    4875 fema…  2009
## # … with abbreviated variable names ¹​flipper_length_mm, ²​body_mass_g

You can also filter a data frame for rows satisfying one of the two conditions using OR. For example to create a data frame with penguins have large flippers or short bills you filter keeping rows with flipper length of at least 220 mm or with bill depth less than 10 mm.

penguins |> 
  dplyr::filter(flipper_length_mm > 220 | 
                bill_depth_mm < 10)

## # A tibble: 35 × 8
##    species island bill_length_mm bill_depth_mm flipper_len…¹ body_…² sex    year
##    <chr>   <chr>           <dbl>         <dbl>         <dbl>   <dbl> <chr> <dbl>
##  1 Gentoo  Biscoe           50            16.3           230    5700 male   2007
##  2 Gentoo  Biscoe           49.2          15.2           221    6300 male   2007
##  3 Gentoo  Biscoe           48.7          15.1           222    5350 male   2007
##  4 Gentoo  Biscoe           47.3          15.3           222    5250 male   2007
##  5 Gentoo  Biscoe           59.6          17             230    6050 male   2007
##  6 Gentoo  Biscoe           49.6          16             225    5700 male   2008
##  7 Gentoo  Biscoe           50.5          15.9           222    5550 male   2008
##  8 Gentoo  Biscoe           50.5          15.9           225    5400 male   2008
##  9 Gentoo  Biscoe           50.1          15             225    5000 male   2008
## 10 Gentoo  Biscoe           50.4          15.3           224    5550 male   2008
## # … with 25 more rows, and abbreviated variable names ¹​flipper_length_mm,
## #   ²​body_mass_g
## # ℹ Use `print(n = ...)` to see more rows
…
## # A tibble: 2 × 8
##   species island    bill_length_mm bill_depth_mm flipper_l…¹ body_…² sex    year
##   <chr>   <chr>              <dbl>         <dbl>       <dbl>   <dbl> <chr> <dbl>
## 1 Adelie  Torgersen             NA            NA          NA      NA <NA>   2007
## 2 Gentoo  Biscoe                NA            NA          NA      NA <NA>   2009
## # … with abbreviated variable names ¹​flipper_length_mm, ²​body_mass_g

Usually you will want to do the reverse of this. That is keep all the rows where the column value is not missing. In this case use negation symbol ! to reverse the selection. In this example, filter rows with no missing values for sex column.

penguins |> 
  dplyr::filter(!is.na(sex))

## # A tibble: 333 × 8
##    species island    bill_length_mm bill_depth_mm flipper_…¹ body_…² sex    year
##    <chr>   <chr>              <dbl>         <dbl>      <dbl>   <dbl> <chr> <dbl>
##  1 Adelie  Torgersen           39.1          18.7        181    3750 male   2007
##  2 Adelie  Torgersen           39.5          17.4        186    3800 fema…  2007
##  3 Adelie  Torgersen           40.3          18          195    3250 fema…  2007
##  4 Adelie  Torgersen           36.7          19.3        193    3450 fema…  2007
##  5 Adelie  Torgersen           39.3          20.6        190    3650 male   2007
##  6 Adelie  Torgersen           38.9          17.8        181    3625 fema…  2007
##  7 Adelie  Torgersen           39.2          19.6        195    4675 male   2007
##  8 Adelie  Torgersen           41.1          17.6        182    3200 fema…  2007
##  9 Adelie  Torgersen           38.6          21.2        191    3800 male   2007
## 10 Adelie  Torgersen           34.6          21.1        198    4400 male   2007
## # … with 323 more rows, and abbreviated variable names ¹​flipper_length_mm,
## #   ²​body_mass_g
## # ℹ Use `print(n = ...)` to see more rows

Note that this filtering will keep rows with other column values that are missing values but there will be no penguins where the sex value is NA.

Stringing functions together

The function arrange() orders the rows by values given in a particular column.

airquality |>
  dplyr::arrange(Solar.R)

## # A tibble: 153 × 6
##    Ozone Solar.R  Wind  Temp Month   Day
##    <int>   <int> <dbl> <int> <int> <int>
##  1    16       7   6.9    74     7    21
##  2     1       8   9.7    59     5    21
##  3    23      13  12      67     5    28
##  4    23      14   9.2    71     9    22
##  5     8      19  20.1    61     5     9
##  6    14      20  16.6    63     9    25
##  7     9      24  13.8    81     8     2
##  8     9      24  10.9    71     9    14
##  9     4      25   9.7    61     5    23
## 10    13      27  10.3    76     9    18
## # … with 143 more rows
## # ℹ Use `print(n = ...)` to see more rows

The ordering is from lowest value to highest value. Here the first 10 rows. Note Month and Day are no longer chronological.

Repeat but order by the value of air temperature.

airquality |>
  dplyr::arrange(Temp)

## # A tibble: 153 × 6
##    Ozone Solar.R  Wind  Temp Month   Day
##    <int>   <int> <dbl> <int> <int> <int>
##  1    NA      NA  14.3    56     5     5
##  2     6      78  18.4    57     5    18
##  3    NA      66  16.6    57     5    25
##  4    NA      NA   8      57     5    27
##  5    18      65  13.2    58     5    15
##  6    NA     266  14.9    58     5    26
##  7    19      99  13.8    59     5     8
##  8     1       8   9.7    59     5    21
##  9     8      19  20.1    61     5     9
## 10     4      25   9.7    61     5    23
## # … with 143 more rows
## # ℹ Use `print(n = ...)` to see more rows
…
For example, create a new column called TempC as the temperature in degrees Celcius. Also create a column called WindMS as the wind speed in meters per second.

airquality |>
  dplyr::mutate(TempC = (Temp - 32) * 5/9,
                WindMS = Wind * .44704) 

## # A tibble: 153 × 8
##    Ozone Solar.R  Wind  Temp Month   Day TempC WindMS
##    <int>   <int> <dbl> <int> <int> <int> <dbl>  <dbl>
##  1    41     190   7.4    67     5     1  19.4   3.31
##  2    36     118   8      72     5     2  22.2   3.58
##  3    12     149  12.6    74     5     3  23.3   5.63
##  4    18     313  11.5    62     5     4  16.7   5.14
##  5    NA      NA  14.3    56     5     5  13.3   6.39
##  6    28      NA  14.9    66     5     6  18.9   6.66
##  7    23     299   8.6    65     5     7  18.3   3.84
##  8    19      99  13.8    59     5     8  15     6.17
##  9     8      19  20.1    61     5     9  16.1   8.99
## 10    NA     194   8.6    69     5    10  20.6   3.84
## # … with 143 more rows
## # ℹ Use `print(n = ...)` to see more rows
…
