Tuesday, September 13, 2022 | GEO5156: Quantitative Geography
…
The function filter() selects a set of rows in a data frame. How would you select all flights occurring on February 1st?

flights |>
  dplyr::filter(month == 2 & 
                day == 1)

## # A tibble: 926 × 19
##     year month   day dep_time sched_de…¹ dep_d…² arr_t…³ sched…⁴ arr_d…⁵ carrier
##    <int> <int> <int>    <int>      <int>   <dbl>   <int>   <int>   <dbl> <chr>  
##  1  2013     2     1      456        500      -4     652     648       4 US     
##  2  2013     2     1      520        525      -5     816     820      -4 UA     
##  3  2013     2     1      527        530      -3     837     829       8 UA     
##  4  2013     2     1      532        540      -8    1007    1017     -10 B6     
##  5  2013     2     1      540        540       0     859     850       9 AA     
##  6  2013     2     1      552        600      -8     714     715      -1 EV     
##  7  2013     2     1      552        600      -8     919     910       9 AA     
##  8  2013     2     1      552        600      -8     655     709     -14 B6     
##  9  2013     2     1      553        600      -7     833     815      18 FL     
## 10  2013     2     1      553        600      -7     821     825      -4 MQ     
## # … with 916 more rows, 9 more variables: flight <int>, tailnum <chr>,
## #   origin <chr>, dest <chr>, air_time <dbl>, distance <dbl>, hour <dbl>,
## #   minute <dbl>, time_hour <dttm>, and abbreviated variable names
## #   ¹​sched_dep_time, ²​dep_delay, ³​arr_time, ⁴​sched_arr_time, ⁵​arr_delay
## # ℹ Use `print(n = ...)` to see more rows, and `colnames()` to see all variable names

The function arrange() reorders the rows. If you provide more than one column name as arguments, each additional column is used to break ties in the values of the preceding columns.

How would you arrange all flights in descending order of departure delay?

flights |>
  dplyr::arrange(desc(dep_delay))

## # A tibble: 336,776 × 19
##     year month   day dep_time sched_de…¹ dep_d…² arr_t…³ sched…⁴ arr_d…⁵ carrier
##    <int> <int> <int>    <int>      <int>   <dbl>   <int>   <int>   <dbl> <chr>  
##  1  2013     1     9      641        900    1301    1242    1530    1272 HA     
##  2  2013     6    15     1432       1935    1137    1607    2120    1127 MQ     
##  3  2013     1    10     1121       1635    1126    1239    1810    1109 MQ     
##  4  2013     9    20     1139       1845    1014    1457    2210    1007 AA     
##  5  2013     7    22      845       1600    1005    1044    1815     989 MQ     
##  6  2013     4    10     1100       1900     960    1342    2211     931 DL     
##  7  2013     3    17     2321        810     911     135    1020     915 DL     
##  8  2013     6    27      959       1900     899    1236    2226     850 DL     
##  9  2013     7    22     2257        759     898     121    1026     895 DL     
## 10  2013    12     5      756       1700     896    1058    2020     878 AA     
## # … with 336,766 more rows, 9 more variables: flight <int>, tailnum <chr>,
## #   origin <chr>, dest <chr>, air_time <dbl>, distance <dbl>, hour <dbl>,
## #   minute <dbl>, time_hour <dttm>, and abbreviated variable names
## #   ¹​sched_dep_time, ²​dep_delay, ³​arr_time, ⁴​sched_arr_time, ⁵​arr_delay
## # ℹ Use `print(n = ...)` to see more rows, and `colnames()` to see all variable names

Often you work with large data sets with many columns but only a few are of interest. The function select() allows us to zoom in on an interesting subset of the columns.

How would you create a data frame containing only the dates, carrier, and flight numbers?

df <- flights |>
  dplyr::select(year:day, carrier, flight)
df

## # A tibble: 336,776 × 5
##     year month   day carrier flight
##    <int> <int> <int> <chr>    <int>
##  1  2013     1     1 UA        1545
##  2  2013     1     1 UA        1714
##  3  2013     1     1 AA        1141
##  4  2013     1     1 B6         725
##  5  2013     1     1 DL         461
##  6  2013     1     1 UA        1696
##  7  2013     1     1 B6         507
##  8  2013     1     1 EV        5708
##  9  2013     1     1 B6          79
## 10  2013     1     1 AA         301
## # … with 336,766 more rows
## # ℹ Use `print(n = ...)` to see more rows
…
df |>
  dplyr::distinct(carrier) |>
  nrow()

## [1] 16

You include new columns with the function mutate(). Compute the time gained during flight by subtracting the departure delay (minutes) from the arrival delay.

flights |>
  dplyr::mutate(gain = arr_delay - dep_delay) |>
  dplyr::select(year:day, carrier, flight, gain) |>
  dplyr::arrange(desc(gain))

## # A tibble: 336,776 × 6
##     year month   day carrier flight  gain
##    <int> <int> <int> <chr>    <int> <dbl>
##  1  2013    11     1 VX         399   196
##  2  2013     4    18 AA         707   181
##  3  2013     8     8 UA         996   165
##  4  2013     7    10 DL        1465   161
##  5  2013     6    27 MQ        3199   157
##  6  2013     7    22 DL        1619   154
##  7  2013     7     1 DL        2395   153
##  8  2013     7    10 EV        4580   150
##  9  2013     7    22 MQ        2793   150
## 10  2013     4    18 AA        2083   148
## # … with 336,766 more rows
## # ℹ Use `print(n = ...)` to see more rows
…
Take a random sample of 1% of the rows.

flights |>
  dplyr::sample_frac(.01)

## # A tibble: 3,368 × 19
##     year month   day dep_time sched_de…¹ dep_d…² arr_t…³ sched…⁴ arr_d…⁵ carrier
##    <int> <int> <int>    <int>      <int>   <dbl>   <int>   <int>   <dbl> <chr>  
##  1  2013    11    27     1854       1900      -6    2132    2131       1 DL     
##  2  2013     1    25      552        600      -8     644     709     -25 B6     
##  3  2013     1     9      658        700      -2     834     839      -5 UA     
##  4  2013     4    19     1805       1800       5    1914    1919      -5 US     
##  5  2013     4    23     1600       1545      15    1805    1745      20 MQ     
##  6  2013     6    14     1708       1715      -7    1820    1829      -9 B6     
##  7  2013     7    27     2358       2359      -1     336     344      -8 B6     
##  8  2013     9    10     1512       1453      19    1750    1811     -21 UA     
##  9  2013     3    30     1901       1905      -4    2039    2114     -35 EV     
## 10  2013     3    15     1910       1905       5    2011    2028     -17 UA     
## # … with 3,358 more rows, 9 more variables: flight <int>, tailnum <chr>,
## #   origin <chr>, dest <chr>, air_time <dbl>, distance <dbl>, hour <dbl>,
## #   minute <dbl>, time_hour <dttm>, and abbreviated variable names
## #   ¹​sched_dep_time, ²​dep_delay, ³​arr_time, ⁴​sched_arr_time, ⁵​arr_delay
## # ℹ Use `print(n = ...)` to see more rows, and `colnames()` to see all variable names

Use the argument replace = TRUE to perform a bootstrap sample. More on this later.

Random samples are important to modern data science.

The verbs are powerful when you apply them to groups of observations within a data frame. This is done with the function group_by(). Determine the average arrival delay by airplane (tail number).

flights |>
  dplyr::group_by(tailnum) |>
  dplyr::summarize(delayAvg = mean(arr_delay, na.rm = TRUE)) |>
  dplyr::arrange(desc(delayAvg))

## # A tibble: 4,044 × 2
##    tailnum delayAvg
##    <chr>      <dbl>
##  1 N844MH      320 
##  2 N911DA      294 
##  3 N922EV      276 
##  4 N587NW      264 
##  5 N851NW      219 
##  6 N928DN      201 
##  7 N7715E      188 
##  8 N654UA      185 
##  9 N665MQ      175.
## 10 N427SW      157 
## # … with 4,034 more rows
## # ℹ Use `print(n = ...)` to see more rows

Determine the number of distinct planes and flights by destination location.

flights |>
  dplyr::group_by(dest) |>
  dplyr::summarize(planes = dplyr::n_distinct(tailnum),
            flights = dplyr::n())

## # A tibble: 105 × 3
##    dest  planes flights
##    <chr>  <int>   <int>
##  1 ABQ      108     254
##  2 ACK       58     265
##  3 ALB      172     439
##  4 ANC        6       8
##  5 ATL     1180   17215
##  6 AUS      993    2439
##  7 AVL      159     275
##  8 BDL      186     443
##  9 BGR       46     375
## 10 BHM       45     297
## # … with 95 more rows
## # ℹ Use `print(n = ...)` to see more rows
…
The data frame contains daily high (TMAX) and low (TMIN) temperatures and total precipitation (PRCP) from two stations: Airport with STATION identification USW00093805 and downtown with STATION identification USC00088754.

Use the select() function to create a new data frame with only STATION, DATE, PRCP, TMAX and TMIN.

TLH.df <- TLH.df |>
  dplyr::select(STATION, DATE, PRCP, TMAX, TMIN)
TLH.df

## # A tibble: 47,056 × 5
##    STATION     DATE        PRCP  TMAX  TMIN
##    <chr>       <date>     <dbl> <dbl> <dbl>
##  1 USW00093805 1940-03-01  0       72    56
##  2 USW00093805 1940-03-02  0       77    53
##  3 USW00093805 1940-03-03  0.05    73    56
##  4 USW00093805 1940-03-04  0       72    44
##  5 USW00093805 1940-03-05  0       61    45
##  6 USW00093805 1940-03-06  0       66    40
##  7 USW00093805 1940-03-07  0       72    36
##  8 USW00093805 1940-03-08  0       56    41
##  9 USW00093805 1940-03-09  0       60    33
## 10 USW00093805 1940-03-10  0       72    32
## # … with 47,046 more rows
## # ℹ Use `print(n = ...)` to see more rows
…
## 
## Attaching package: 'lubridate'

## The following objects are masked from 'package:base':
## 
##     date, intersect, setdiff, union

TLH.df <- TLH.df |>
  dplyr::mutate(Year = year(DATE),
                Month = month(DATE),
                Day = day(DATE),
                DoW = weekdays(DATE))
TLH.df

## # A tibble: 10,632 × 9
##    STATION     DATE        PRCP  TMAX  TMIN  Year Month   Day DoW      
##    <chr>       <date>     <dbl> <dbl> <dbl> <dbl> <dbl> <int> <chr>    
##  1 USW00093805 1940-05-18  0       91    53  1940     5    18 Saturday 
##  2 USW00093805 1940-05-20  0       92    60  1940     5    20 Monday   
##  3 USW00093805 1940-05-21  0       94    67  1940     5    21 Tuesday  
##  4 USW00093805 1940-05-22  0       93    64  1940     5    22 Wednesday
##  5 USW00093805 1940-05-23  0       93    71  1940     5    23 Thursday 
##  6 USW00093805 1940-05-27  0       90    60  1940     5    27 Monday   
##  7 USW00093805 1940-05-28  0       90    58  1940     5    28 Tuesday  
##  8 USW00093805 1940-06-02  0       91    62  1940     6     2 Sunday   
##  9 USW00093805 1940-06-14  0.45    91    68  1940     6    14 Friday   
## 10 USW00093805 1940-06-17  0       91    73  1940     6    17 Monday   
## # … with 10,622 more rows
## # ℹ Use `print(n = ...)` to see more rows

Next you keep only the temperature record from the airport. You use the filter() function on the column labeled STATION.

TLH.df <- TLH.df |>
  dplyr::filter(STATION == "USW00093805")

Now what if you want to know how many hot days (90F or higher) by year? You use the group_by() function and count using the n() function.

TLH90.df <- TLH.df |>
  dplyr::group_by(Year) |>
  dplyr::summarize(nHotDays = dplyr::n())

TLH90.df

## # A tibble: 79 × 2
##     Year nHotDays
##    <dbl>    <int>
##  1  1940       63
##  2  1941       96
##  3  1942       75
##  4  1943      101
##  5  1944       95
##  6  1945       83
##  7  1946       71
##  8  1947       94
##  9  1948       97
## 10  1949       70
## # … with 69 more rows
## # ℹ Use `print(n = ...)` to see more rows
…
As expected the number of 90F+ days is highest in July and August. Note that you’ve had 90F+ days in October.

Would you expect there to be more hot days on the weekend? How would you check this?

TLH.df |>
  dplyr::group_by(Year, DoW) |>
  dplyr::summarize(nHotDays = dplyr::n())

## `summarise()` has grouped output by 'Year'. You can override using the
## `.groups` argument.

## # A tibble: 553 × 3
## # Groups:   Year [79]
##     Year DoW       nHotDays
##    <dbl> <chr>        <int>
##  1  1940 Friday          10
##  2  1940 Monday          10
##  3  1940 Saturday         7
##  4  1940 Sunday           8
##  5  1940 Thursday         9
##  6  1940 Tuesday         11
##  7  1940 Wednesday        8
##  8  1941 Friday          17
##  9  1941 Monday          12
## 10  1941 Saturday        13
## # … with 543 more rows
## # ℹ Use `print(n = ...)` to see more rows

You can group by more than one variable. For example, add the variable Year to the group_by() function above.

Recall that you can also arrange() the data frame ordered according to the values in a particular column.

TLH90.df |>
  dplyr::arrange(desc(nHotDays))

## # A tibble: 79 × 2
##     Year nHotDays
##    <dbl>    <int>
##  1  2016      134
##  2  1990      129
##  3  2011      125
##  4  1993      119
##  5  2010      118
##  6  2015      118
##  7  2018      118
##  8  1986      116
##  9  2007      116
## 10  2000      115
## # … with 69 more rows
## # ℹ Use `print(n = ...)` to see more rows
…
fc.df |>
  dplyr::distinct(country) |>
  nrow()

## [1] 130

Arrange the countries from most pork consumption per person to the least pork consumption.

fc.df |>
  dplyr::filter(food_category == "Pork") |>
  dplyr::select(country, consumption) |>
  dplyr::arrange(desc(consumption))

## # A tibble: 130 × 2
##    country              consumption
##    <chr>                      <dbl>
##  1 Hong Kong SAR. China        67.1
##  2 Austria                     52.6
##  3 Germany                     51.8
##  4 Spain                       48.9
##  5 Poland                      46.2
##  6 Lithuania                   45.7
##  7 Luxembourg                  43.6
##  8 Croatia                     42.8
##  9 Czech Republic              41.2
## 10 Belarus                     40.4
## # … with 120 more rows
## # ℹ Use `print(n = ...)` to see more rows

Arrange the countries from the largest carbon footprint with respect to eating habits to the smallest carbon footprint.

fc.df |>
  dplyr::rename(co2_emission = co2_emmission) |>
  dplyr::group_by(country) |>
  dplyr::summarize(totalEmission = sum(co2_emission)) |>
  dplyr::arrange(desc(totalEmission))

## # A tibble: 130 × 2
##    country     totalEmission
##    <chr>               <dbl>
##  1 Argentina           2172.
##  2 Australia           1939.
##  3 Albania             1778.
##  4 New Zealand         1751.
##  5 Iceland             1731.
##  6 USA                 1719.
##  7 Uruguay             1635.
##  8 Brazil              1617.
##  9 Luxembourg          1598.
## 10 Kazakhstan          1575.
## # … with 120 more rows
## # ℹ Use `print(n = ...)` to see more rows
…
