Tuesday, October 19, 2022 | GEO5156: Quantitative Geography
…
You can fit regression models for all months. First convert the wide to a long data frame.

FLpL <- FLp |>
  tidyr::pivot_longer(cols = Jan:Dec,
                      names_to = "Month",
                      values_to = "Precipitation")

Then to fit trend models separately for each month you use the do() function from the {dplyr} package together with the tidy() function from the {broom} package.

FLpL |> 
  dplyr::mutate(MonthF = factor(Month, levels = month.abb)) |>
  dplyr::group_by(MonthF) |>
  dplyr::do(broom::tidy(lm(Precipitation ~ Year, data = .)))

## # A tibble: 24 × 6
## # Groups:   MonthF [12]
##    MonthF term          estimate std.error statistic p.value
##    <fct>  <chr>            <dbl>     <dbl>     <dbl>   <dbl>
##  1 Jan    (Intercept) -10.6        8.14      -1.30    0.197 
##  2 Jan    Year          0.00691    0.00417    1.66    0.100 
##  3 Feb    (Intercept)   4.46       8.22       0.543   0.588 
##  4 Feb    Year         -0.000664   0.00421   -0.158   0.875 
##  5 Mar    (Intercept) -19.2       10.3       -1.87    0.0638
##  6 Mar    Year          0.0117     0.00525    2.23    0.0277
##  7 Apr    (Intercept)   2.61       8.34       0.313   0.755 
##  8 Apr    Year          0.000162   0.00427    0.0380  0.970 
##  9 May    (Intercept)   8.76       9.72       0.901   0.369 
## 10 May    Year         -0.00252    0.00498   -0.506   0.614 
## # … with 14 more rows
…
