Tuesday, September 6, 2022 | GEO5156: Quantitative Geography
…
To print the second row of the first column of the data frame LH.df you type

LH.df[2, 1]

## # A tibble: 1 × 1
##    Year
##   <dbl>
## 1  1852

If you want all the values in a column, you leave the row number blank.

LH.df[ , 1]

## # A tibble: 166 × 1
##     Year
##    <dbl>
##  1  1851
##  2  1852
##  3  1853
##  4  1854
##  5  1855
##  6  1856
##  7  1857
##  8  1858
##  9  1859
## 10  1860
## # … with 156 more rows
## # ℹ Use `print(n = ...)` to see more rows
…
