Tuesday, September 20, 2022 | GEO5156: Quantitative Geography
…
Visualizing uncertainty

The {ggdist} package provides a flexible set of {ggplot2} geoms and stats designed for visualizing distributions and uncertainty.

The functions are designed for frequentist and Bayesian uncertainty visualization, taking the view that uncertainty visualization can be unified through the perspective of distribution visualization.

With frequentist models you visualize confidence distributions or bootstrap distributions. For Bayesian models, you visualize probability distributions.

As one example, consider again the Palmer penguins. Here you filter to keep only the Chinstrap penguins.

( Chinstrap.df <- penguins |>
    dplyr::filter(species == "Chinstrap") )

## # A tibble: 68 × 8
##    species   island bill_length_mm bill_depth_mm flipper_l…¹ body_…² sex    year
##    <chr>     <chr>           <dbl>         <dbl>       <dbl>   <dbl> <chr> <dbl>
##  1 Chinstrap Dream            46.5          17.9         192    3500 fema…  2007
##  2 Chinstrap Dream            50            19.5         196    3900 male   2007
##  3 Chinstrap Dream            51.3          19.2         193    3650 male   2007
##  4 Chinstrap Dream            45.4          18.7         188    3525 fema…  2007
##  5 Chinstrap Dream            52.7          19.8         197    3725 male   2007
##  6 Chinstrap Dream            45.2          17.8         198    3950 fema…  2007
##  7 Chinstrap Dream            46.1          18.2         178    3250 fema…  2007
##  8 Chinstrap Dream            51.3          18.2         197    3750 male   2007
##  9 Chinstrap Dream            46            18.9         195    4150 fema…  2007
## 10 Chinstrap Dream            51.3          19.9         198    3700 male   2007
## # … with 58 more rows, and abbreviated variable names ¹​flipper_length_mm,
## #   ²​body_mass_g
## # ℹ Use `print(n = ...)` to see more rows
…
